{
  "product": "ModelG",
  "software_version": "1.X.0",
  "build_number": "1395",
  "build_date": "2017-12-21 20:15:37",
  "jurisdiction": "NV",
  "program_media_version_sku": "100032",
  "software_components": {
    "egm-monitor": "v20171221",
    "display-background-status": "v20171221",
    "shatools": "v20171107",
    "system-hardware-check": "v20171107",
    "csg-platform": "v20171221",
    "wagering-service": "v1.0.70",
    "analytics-service": "v1.0.25",
    "operator-control": "v4.0.55",
    "oc-interface": "v1.104.18"
  },
  "entertainment_game": {
    "1503": "1.2.0",
    "2003": "1.2.0",
    "2403": "1.2.0"
  },
  "database_version": "v1.0.48"
}