{
  "type":"transaction.updates",
  "version":"0.1",
  "requests":[
      {
        "action":"insert",
        "path":"checksums.[name=9999C101Math].name",
        "payload": "9999C101Math"
      },
      {
        "action":"insert",
        "path":"checksums.[name=9999C101Math].location",
        "payload": "cat"
      },
      {
        "action":"insert",
        "path":"checksums.[+]",
        "payload":{"name" : "9999D101Math"}
      },
      {
        "action":"insert",
        "path":"checksums.[+]",
        "payload":{"name" : "9999D101Math"}
      },
      {
        "action":"insert",
        "path":"checksums.[+]",
        "payload":{"name" : "9999D105Math"}
      }
    ]
}
