{
  "type":"transaction.updates",
  "version":"0.1",
  "requests":[
      {
        "action":"insert",
        "path":"category.[+]",
        "payload": "1"
      },
      {
        "action":"insert",
        "path":"category.[+]",
        "payload": "A"
      },
      {
        "action":"insert",
        "path":"category.[+]",
        "payload": "2"
      },
      {
        "action":"insert",
        "path":"category.[+]",
        "payload": "3"
      },
      {
       "action":"delete",
       "path":"category.[=A]",
       "payload":"NA"
      },
      {
       "action":"delete",
       "path":"category.[=SKU-not-defined]",
       "payload":"NA"
      },
      {
        "action":"insert",
       "path":"category.[+]",
        "payload": "SKU-not-defined"
      },
      {
        "action":"delete",
        "path":"hotfix.[=CSG-Replace]",
        "payload":"NA"
      }
      
      
      
    ]
}
