<?xml version="1.0" encoding="UTF-8"?>
<session version="1.0">
<refactoring comment="Rename resource &apos;my_project/root/nested/codecademy_2_Date and Time.py&apos; to &apos;codecademy_2_Date_and_Time.py&apos;" description="Rename resource &apos;codecademy_2_Date and Time.py&apos;" flags="7" id="org.eclipse.ltk.core.refactoring.rename.resource" input="root/nested/codecademy_2_Date and Time.py" name="codecademy_2_Date_and_Time.py" stamp="1503614615065" updateReferences="true"/>
</session>